-- Merging decision tree log ---
manifest
ADDED from D:\CurrencyExchangeApp\CurrencyExchangeApp\app\src\main\AndroidManifest.xml:2:1-24:12
INJECTED from D:\CurrencyExchangeApp\CurrencyExchangeApp\app\src\main\AndroidManifest.xml:2:1-24:12
INJECTED from D:\CurrencyExchangeApp\CurrencyExchangeApp\app\src\main\AndroidManifest.xml:2:1-24:12
INJECTED from D:\CurrencyExchangeApp\CurrencyExchangeApp\app\src\main\AndroidManifest.xml:2:1-24:12
MERGED from [androidx.databinding:databinding-adapters:4.0.0] C:\Users\User\.gradle\caches\transforms-2\files-2.1\843f0d1a7a6672b7cfd8450c11b21609\databinding-adapters-4.0.0\AndroidManifest.xml:17:1-24:12
MERGED from [androidx.databinding:databinding-runtime:4.0.0] C:\Users\User\.gradle\caches\transforms-2\files-2.1\07c358b4be75ed6c6cc333f92e7c1e29\databinding-runtime-4.0.0\AndroidManifest.xml:17:1-24:12
MERGED from [androidx.databinding:viewbinding:4.0.0] C:\Users\User\.gradle\caches\transforms-2\files-2.1\6df05b1e3dd101af0476c44e9cab42f0\jetified-viewbinding-4.0.0\AndroidManifest.xml:17:1-22:12
MERGED from [androidx.navigation:navigation-fragment-ktx:2.2.0] C:\Users\User\.gradle\caches\transforms-2\files-2.1\ec5ef704bcd37d0d5b500a7944462d52\navigation-fragment-ktx-2.2.0\AndroidManifest.xml:17:1-24:12
MERGED from [androidx.fragment:fragment-ktx:1.2.0] C:\Users\User\.gradle\caches\transforms-2\files-2.1\aacff69b5e64e13539afae5b537b6395\jetified-fragment-ktx-1.2.0\AndroidManifest.xml:17:1-24:12
MERGED from [androidx.navigation:navigation-ui-ktx:2.2.0] C:\Users\User\.gradle\caches\transforms-2\files-2.1\1abec84adabf1a09bd20c381123ff91e\navigation-ui-ktx-2.2.0\AndroidManifest.xml:17:1-24:12
MERGED from [androidx.navigation:navigation-runtime-ktx:2.2.0] C:\Users\User\.gradle\caches\transforms-2\files-2.1\f96febac95c4538ee95a2822d92c23b6\navigation-runtime-ktx-2.2.0\AndroidManifest.xml:17:1-24:12
MERGED from [androidx.activity:activity-ktx:1.1.0] C:\Users\User\.gradle\caches\transforms-2\files-2.1\75ef4d45297f18251da058397df83e5b\jetified-activity-ktx-1.1.0\AndroidManifest.xml:17:1-24:12
MERGED from [androidx.core:core-ktx:1.3.0] C:\Users\User\.gradle\caches\transforms-2\files-2.1\17577617bf97907efee4104d067f2bf8\jetified-core-ktx-1.3.0\AndroidManifest.xml:2:1-9:12
MERGED from [androidx.lifecycle:lifecycle-viewmodel-ktx:2.2.0] C:\Users\User\.gradle\caches\transforms-2\files-2.1\fa53d8c6d64a702f2d6c031dcf2c9b2f\jetified-lifecycle-viewmodel-ktx-2.2.0\AndroidManifest.xml:17:1-24:12
MERGED from [androidx.room:room-ktx:2.2.5] C:\Users\User\.gradle\caches\transforms-2\files-2.1\f859e8136fafa22e5e79a40d814c73b3\jetified-room-ktx-2.2.5\AndroidManifest.xml:17:1-24:12
MERGED from [androidx.lifecycle:lifecycle-runtime-ktx:2.2.0] C:\Users\User\.gradle\caches\transforms-2\files-2.1\bcc83e2649144b9ee61d30af3b279126\jetified-lifecycle-runtime-ktx-2.2.0\AndroidManifest.xml:17:1-24:12
MERGED from [androidx.navigation:navigation-common-ktx:2.2.0] C:\Users\User\.gradle\caches\transforms-2\files-2.1\dca6fc9b59f20270e3988dd285106860\navigation-common-ktx-2.2.0\AndroidManifest.xml:17:1-24:12
MERGED from [androidx.lifecycle:lifecycle-livedata-core-ktx:2.2.0] C:\Users\User\.gradle\caches\transforms-2\files-2.1\6af8afa66d369154938a38569b04866a\jetified-lifecycle-livedata-core-ktx-2.2.0\AndroidManifest.xml:17:1-24:12
MERGED from [androidx.navigation:navigation-ui:2.2.0] C:\Users\User\.gradle\caches\transforms-2\files-2.1\9c6724b6422e2c31d4d6bc92d63f61c1\navigation-ui-2.2.0\AndroidManifest.xml:17:1-24:12
MERGED from [com.google.android.material:material:1.2.0-alpha04] C:\Users\User\.gradle\caches\transforms-2\files-2.1\010e2165c47a8fe403e905a8fae5dd22\material-1.2.0-alpha04\AndroidManifest.xml:17:1-24:12
MERGED from [com.google.dagger:dagger-android-support:2.21] C:\Users\User\.gradle\caches\transforms-2\files-2.1\264e09f505d688edd094a2d32be51988\jetified-dagger-android-support-2.21\AndroidManifest.xml:17:1-22:12
MERGED from [com.github.AnyChart:AnyChart-Android:1.1.2] C:\Users\User\.gradle\caches\transforms-2\files-2.1\44efca0cd53408161b70c600ea62c3db\jetified-AnyChart-Android-1.1.2\AndroidManifest.xml:2:1-17:12
MERGED from [androidx.appcompat:appcompat:1.1.0] C:\Users\User\.gradle\caches\transforms-2\files-2.1\2c15c81801cef441f5424dee86ebb27e\appcompat-1.1.0\AndroidManifest.xml:17:1-24:12
MERGED from [androidx.constraintlayout:constraintlayout:1.1.3] C:\Users\User\.gradle\caches\transforms-2\files-2.1\bd553e95add3160adb4360269271e713\constraintlayout-1.1.3\AndroidManifest.xml:2:1-11:12
MERGED from [androidx.lifecycle:lifecycle-extensions:2.2.0] C:\Users\User\.gradle\caches\transforms-2\files-2.1\02e6e5e526f36fa790ca38374db056cf\lifecycle-extensions-2.2.0\AndroidManifest.xml:17:1-27:12
MERGED from [androidx.navigation:navigation-fragment:2.2.0] C:\Users\User\.gradle\caches\transforms-2\files-2.1\e6c2719dd3746ababee76849f604dac0\navigation-fragment-2.2.0\AndroidManifest.xml:17:1-24:12
MERGED from [com.google.dagger:dagger-android:2.21] C:\Users\User\.gradle\caches\transforms-2\files-2.1\20e202d7d04cb5afa9fa9fcb0cd53b43\jetified-dagger-android-2.21\AndroidManifest.xml:17:1-22:12
MERGED from [androidx.room:room-runtime:2.2.5] C:\Users\User\.gradle\caches\transforms-2\files-2.1\03e1d56f51f904714d066cce5d86952b\room-runtime-2.2.5\AndroidManifest.xml:17:1-31:12
MERGED from [androidx.appcompat:appcompat-resources:1.1.0] C:\Users\User\.gradle\caches\transforms-2\files-2.1\b5ae18c9d701f04df9a4653ebc60c58d\jetified-appcompat-resources-1.1.0\AndroidManifest.xml:17:1-24:12
MERGED from [androidx.drawerlayout:drawerlayout:1.0.0] C:\Users\User\.gradle\caches\transforms-2\files-2.1\ccb6ac9dc2ab0e85485cfe8268e9be9f\drawerlayout-1.0.0\AndroidManifest.xml:17:1-22:12
MERGED from [androidx.coordinatorlayout:coordinatorlayout:1.1.0] C:\Users\User\.gradle\caches\transforms-2\files-2.1\266335dd7342bace14c19296a9826d19\coordinatorlayout-1.1.0\AndroidManifest.xml:17:1-24:12
MERGED from [androidx.transition:transition:1.2.0] C:\Users\User\.gradle\caches\transforms-2\files-2.1\02b39589307b33d38ddc9e41418f08bb\transition-1.2.0\AndroidManifest.xml:17:1-24:12
MERGED from [androidx.vectordrawable:vectordrawable-animated:1.1.0] C:\Users\User\.gradle\caches\transforms-2\files-2.1\69d3f5308aa3df62fc88288cec56167f\vectordrawable-animated-1.1.0\AndroidManifest.xml:17:1-24:12
MERGED from [androidx.vectordrawable:vectordrawable:1.1.0] C:\Users\User\.gradle\caches\transforms-2\files-2.1\ea71c2e724492b83774f754bdd78820b\vectordrawable-1.1.0\AndroidManifest.xml:17:1-24:12
MERGED from [androidx.viewpager2:viewpager2:1.0.0] C:\Users\User\.gradle\caches\transforms-2\files-2.1\f55c003a69969e2d2d77d2b49c56a849\jetified-viewpager2-1.0.0\AndroidManifest.xml:17:1-24:12
MERGED from [androidx.fragment:fragment:1.2.0] C:\Users\User\.gradle\caches\transforms-2\files-2.1\a3764e74a55137a4d5508b55901e51c3\fragment-1.2.0\AndroidManifest.xml:17:1-24:12
MERGED from [androidx.recyclerview:recyclerview:1.1.0] C:\Users\User\.gradle\caches\transforms-2\files-2.1\534d4d79531678432cd6e17d6d172629\recyclerview-1.1.0\AndroidManifest.xml:17:1-24:12
MERGED from [androidx.viewpager:viewpager:1.0.0] C:\Users\User\.gradle\caches\transforms-2\files-2.1\404916a290117c68d9c416fe182fcacb\viewpager-1.0.0\AndroidManifest.xml:17:1-22:12
MERGED from [androidx.customview:customview:1.0.0] C:\Users\User\.gradle\caches\transforms-2\files-2.1\e8abd7c71980c80168a90c01481073f5\customview-1.0.0\AndroidManifest.xml:17:1-22:12
MERGED from [androidx.loader:loader:1.0.0] C:\Users\User\.gradle\caches\transforms-2\files-2.1\0e36da8e30fd5503e1e335ff0baa7d57\loader-1.0.0\AndroidManifest.xml:17:1-22:12
MERGED from [androidx.navigation:navigation-runtime:2.2.0] C:\Users\User\.gradle\caches\transforms-2\files-2.1\e8e08643013d88386996271f183d45ff\navigation-runtime-2.2.0\AndroidManifest.xml:17:1-24:12
MERGED from [androidx.activity:activity:1.1.0] C:\Users\User\.gradle\caches\transforms-2\files-2.1\973c54ffa1bb27dbd3474432edbbbb08\jetified-activity-1.1.0\AndroidManifest.xml:17:1-24:12
MERGED from [androidx.navigation:navigation-common:2.2.0] C:\Users\User\.gradle\caches\transforms-2\files-2.1\c1741257bef60edbc7f799ee8aea8a78\navigation-common-2.2.0\AndroidManifest.xml:17:1-24:12
MERGED from [androidx.core:core:1.3.0] C:\Users\User\.gradle\caches\transforms-2\files-2.1\d6161d56020ec5e256ba8c7a40c1d495\core-1.3.0\AndroidManifest.xml:17:1-26:12
MERGED from [androidx.cursoradapter:cursoradapter:1.0.0] C:\Users\User\.gradle\caches\transforms-2\files-2.1\08fba8f88dfc36a1904212ca1348d789\cursoradapter-1.0.0\AndroidManifest.xml:17:1-22:12
MERGED from [androidx.cardview:cardview:1.0.0] C:\Users\User\.gradle\caches\transforms-2\files-2.1\d6ee3408dddc326f7dfcc683e4875f13\cardview-1.0.0\AndroidManifest.xml:17:1-22:12
MERGED from [androidx.lifecycle:lifecycle-process:2.2.0] C:\Users\User\.gradle\caches\transforms-2\files-2.1\fee8a1e5bd004e46e1a24986670eab9c\jetified-lifecycle-process-2.2.0\AndroidManifest.xml:17:1-32:12
MERGED from [androidx.lifecycle:lifecycle-service:2.2.0] C:\Users\User\.gradle\caches\transforms-2\files-2.1\be9604ef229a594249dabe32fc1257e3\jetified-lifecycle-service-2.2.0\AndroidManifest.xml:17:1-24:12
MERGED from [androidx.lifecycle:lifecycle-runtime:2.2.0] C:\Users\User\.gradle\caches\transforms-2\files-2.1\b9f6de64f92fa56e6da4277fb2ac1cc4\lifecycle-runtime-2.2.0\AndroidManifest.xml:17:1-24:12
MERGED from [androidx.lifecycle:lifecycle-livedata:2.2.0] C:\Users\User\.gradle\caches\transforms-2\files-2.1\b2248345df6dbd3ff405c1a75ef52630\lifecycle-livedata-2.2.0\AndroidManifest.xml:17:1-24:12
MERGED from [androidx.lifecycle:lifecycle-viewmodel-savedstate:1.0.0] C:\Users\User\.gradle\caches\transforms-2\files-2.1\6bb3281b3904ab8013189bec604976d6\jetified-lifecycle-viewmodel-savedstate-1.0.0\AndroidManifest.xml:17:1-24:12
MERGED from [androidx.lifecycle:lifecycle-livedata-core:2.2.0] C:\Users\User\.gradle\caches\transforms-2\files-2.1\dc6d664350d804de6cb197c2a880021e\lifecycle-livedata-core-2.2.0\AndroidManifest.xml:17:1-24:12
MERGED from [androidx.arch.core:core-runtime:2.1.0] C:\Users\User\.gradle\caches\transforms-2\files-2.1\1ba0fc9c3aa04cec289e86aed4971621\core-runtime-2.1.0\AndroidManifest.xml:17:1-24:12
MERGED from [androidx.savedstate:savedstate:1.0.0] C:\Users\User\.gradle\caches\transforms-2\files-2.1\1a4014dfdedd3dc7ab29fe757fdc913a\jetified-savedstate-1.0.0\AndroidManifest.xml:17:1-24:12
MERGED from [androidx.lifecycle:lifecycle-viewmodel:2.2.0] C:\Users\User\.gradle\caches\transforms-2\files-2.1\f4894f2f153dfe4809994317d515a637\lifecycle-viewmodel-2.2.0\AndroidManifest.xml:17:1-24:12
MERGED from [androidx.sqlite:sqlite-framework:2.0.1] C:\Users\User\.gradle\caches\transforms-2\files-2.1\031af4b671a5f5dfd62d490dcef226b7\sqlite-framework-2.0.1\AndroidManifest.xml:17:1-22:12
MERGED from [androidx.sqlite:sqlite:2.0.1] C:\Users\User\.gradle\caches\transforms-2\files-2.1\ab831410c6e66baff0feed88666f971b\sqlite-2.0.1\AndroidManifest.xml:17:1-22:12
MERGED from [androidx.versionedparcelable:versionedparcelable:1.1.0] C:\Users\User\.gradle\caches\transforms-2\files-2.1\9fe5c2d32e607f2f3e730fd9a99d3dec\versionedparcelable-1.1.0\AndroidManifest.xml:17:1-27:12
MERGED from [androidx.interpolator:interpolator:1.0.0] C:\Users\User\.gradle\caches\transforms-2\files-2.1\31582ce92161d48cbefa54b97e5bad61\interpolator-1.0.0\AndroidManifest.xml:17:1-22:12
MERGED from [androidx.annotation:annotation-experimental:1.0.0] C:\Users\User\.gradle\caches\transforms-2\files-2.1\0f97dd6845d20635a9a1ee09eea27777\jetified-annotation-experimental-1.0.0\AndroidManifest.xml:17:1-24:12
INJECTED from D:\CurrencyExchangeApp\CurrencyExchangeApp\app\src\main\AndroidManifest.xml:2:1-24:12
INJECTED from D:\CurrencyExchangeApp\CurrencyExchangeApp\app\src\main\AndroidManifest.xml:2:1-24:12
INJECTED from D:\CurrencyExchangeApp\CurrencyExchangeApp\app\src\main\AndroidManifest.xml:2:1-24:12
	package
		ADDED from D:\CurrencyExchangeApp\CurrencyExchangeApp\app\src\main\AndroidManifest.xml:3:5-46
		INJECTED from D:\CurrencyExchangeApp\CurrencyExchangeApp\app\src\main\AndroidManifest.xml
		INJECTED from D:\CurrencyExchangeApp\CurrencyExchangeApp\app\src\main\AndroidManifest.xml
	android:versionName
		INJECTED from D:\CurrencyExchangeApp\CurrencyExchangeApp\app\src\main\AndroidManifest.xml
		ADDED from D:\CurrencyExchangeApp\CurrencyExchangeApp\app\src\main\AndroidManifest.xml:2:1-24:12
		INJECTED from D:\CurrencyExchangeApp\CurrencyExchangeApp\app\src\main\AndroidManifest.xml
	android:versionCode
		INJECTED from D:\CurrencyExchangeApp\CurrencyExchangeApp\app\src\main\AndroidManifest.xml
		ADDED from D:\CurrencyExchangeApp\CurrencyExchangeApp\app\src\main\AndroidManifest.xml:2:1-24:12
		INJECTED from D:\CurrencyExchangeApp\CurrencyExchangeApp\app\src\main\AndroidManifest.xml
	xmlns:android
		ADDED from D:\CurrencyExchangeApp\CurrencyExchangeApp\app\src\main\AndroidManifest.xml:2:11-69
uses-permission#android.permission.INTERNET
ADDED from D:\CurrencyExchangeApp\CurrencyExchangeApp\app\src\main\AndroidManifest.xml:5:5-66
	android:name
		ADDED from D:\CurrencyExchangeApp\CurrencyExchangeApp\app\src\main\AndroidManifest.xml:5:22-64
application
ADDED from D:\CurrencyExchangeApp\CurrencyExchangeApp\app\src\main\AndroidManifest.xml:7:5-22:19
MERGED from [com.google.android.material:material:1.2.0-alpha04] C:\Users\User\.gradle\caches\transforms-2\files-2.1\010e2165c47a8fe403e905a8fae5dd22\material-1.2.0-alpha04\AndroidManifest.xml:22:5-20
MERGED from [com.google.android.material:material:1.2.0-alpha04] C:\Users\User\.gradle\caches\transforms-2\files-2.1\010e2165c47a8fe403e905a8fae5dd22\material-1.2.0-alpha04\AndroidManifest.xml:22:5-20
MERGED from [com.github.AnyChart:AnyChart-Android:1.1.2] C:\Users\User\.gradle\caches\transforms-2\files-2.1\44efca0cd53408161b70c600ea62c3db\jetified-AnyChart-Android-1.1.2\AndroidManifest.xml:11:5-15:19
MERGED from [com.github.AnyChart:AnyChart-Android:1.1.2] C:\Users\User\.gradle\caches\transforms-2\files-2.1\44efca0cd53408161b70c600ea62c3db\jetified-AnyChart-Android-1.1.2\AndroidManifest.xml:11:5-15:19
MERGED from [androidx.constraintlayout:constraintlayout:1.1.3] C:\Users\User\.gradle\caches\transforms-2\files-2.1\bd553e95add3160adb4360269271e713\constraintlayout-1.1.3\AndroidManifest.xml:9:5-20
MERGED from [androidx.constraintlayout:constraintlayout:1.1.3] C:\Users\User\.gradle\caches\transforms-2\files-2.1\bd553e95add3160adb4360269271e713\constraintlayout-1.1.3\AndroidManifest.xml:9:5-20
MERGED from [androidx.lifecycle:lifecycle-extensions:2.2.0] C:\Users\User\.gradle\caches\transforms-2\files-2.1\02e6e5e526f36fa790ca38374db056cf\lifecycle-extensions-2.2.0\AndroidManifest.xml:24:5-25:19
MERGED from [androidx.lifecycle:lifecycle-extensions:2.2.0] C:\Users\User\.gradle\caches\transforms-2\files-2.1\02e6e5e526f36fa790ca38374db056cf\lifecycle-extensions-2.2.0\AndroidManifest.xml:24:5-25:19
MERGED from [androidx.room:room-runtime:2.2.5] C:\Users\User\.gradle\caches\transforms-2\files-2.1\03e1d56f51f904714d066cce5d86952b\room-runtime-2.2.5\AndroidManifest.xml:24:5-29:19
MERGED from [androidx.room:room-runtime:2.2.5] C:\Users\User\.gradle\caches\transforms-2\files-2.1\03e1d56f51f904714d066cce5d86952b\room-runtime-2.2.5\AndroidManifest.xml:24:5-29:19
MERGED from [androidx.core:core:1.3.0] C:\Users\User\.gradle\caches\transforms-2\files-2.1\d6161d56020ec5e256ba8c7a40c1d495\core-1.3.0\AndroidManifest.xml:24:5-89
MERGED from [androidx.core:core:1.3.0] C:\Users\User\.gradle\caches\transforms-2\files-2.1\d6161d56020ec5e256ba8c7a40c1d495\core-1.3.0\AndroidManifest.xml:24:5-89
MERGED from [androidx.lifecycle:lifecycle-process:2.2.0] C:\Users\User\.gradle\caches\transforms-2\files-2.1\fee8a1e5bd004e46e1a24986670eab9c\jetified-lifecycle-process-2.2.0\AndroidManifest.xml:24:5-30:19
MERGED from [androidx.lifecycle:lifecycle-process:2.2.0] C:\Users\User\.gradle\caches\transforms-2\files-2.1\fee8a1e5bd004e46e1a24986670eab9c\jetified-lifecycle-process-2.2.0\AndroidManifest.xml:24:5-30:19
MERGED from [androidx.versionedparcelable:versionedparcelable:1.1.0] C:\Users\User\.gradle\caches\transforms-2\files-2.1\9fe5c2d32e607f2f3e730fd9a99d3dec\versionedparcelable-1.1.0\AndroidManifest.xml:24:5-25:19
MERGED from [androidx.versionedparcelable:versionedparcelable:1.1.0] C:\Users\User\.gradle\caches\transforms-2\files-2.1\9fe5c2d32e607f2f3e730fd9a99d3dec\versionedparcelable-1.1.0\AndroidManifest.xml:24:5-25:19
	android:appComponentFactory
		ADDED from [androidx.core:core:1.3.0] C:\Users\User\.gradle\caches\transforms-2\files-2.1\d6161d56020ec5e256ba8c7a40c1d495\core-1.3.0\AndroidManifest.xml:24:18-86
	android:supportsRtl
		ADDED from D:\CurrencyExchangeApp\CurrencyExchangeApp\app\src\main\AndroidManifest.xml:13:9-35
	android:label
		ADDED from D:\CurrencyExchangeApp\CurrencyExchangeApp\app\src\main\AndroidManifest.xml:11:9-41
	android:roundIcon
		ADDED from D:\CurrencyExchangeApp\CurrencyExchangeApp\app\src\main\AndroidManifest.xml:12:9-54
	android:icon
		ADDED from D:\CurrencyExchangeApp\CurrencyExchangeApp\app\src\main\AndroidManifest.xml:10:9-43
	android:allowBackup
		ADDED from D:\CurrencyExchangeApp\CurrencyExchangeApp\app\src\main\AndroidManifest.xml:9:9-35
	android:theme
		ADDED from D:\CurrencyExchangeApp\CurrencyExchangeApp\app\src\main\AndroidManifest.xml:14:9-40
	android:name
		ADDED from D:\CurrencyExchangeApp\CurrencyExchangeApp\app\src\main\AndroidManifest.xml:8:9-55
activity#com.example.currencyexchangeapp.features.HomeActivity
ADDED from D:\CurrencyExchangeApp\CurrencyExchangeApp\app\src\main\AndroidManifest.xml:15:9-21:20
	android:name
		ADDED from D:\CurrencyExchangeApp\CurrencyExchangeApp\app\src\main\AndroidManifest.xml:15:19-56
intent-filter#action:name:android.intent.action.MAIN+category:name:android.intent.category.LAUNCHER
ADDED from D:\CurrencyExchangeApp\CurrencyExchangeApp\app\src\main\AndroidManifest.xml:16:13-20:29
action#android.intent.action.MAIN
ADDED from D:\CurrencyExchangeApp\CurrencyExchangeApp\app\src\main\AndroidManifest.xml:17:17-69
	android:name
		ADDED from D:\CurrencyExchangeApp\CurrencyExchangeApp\app\src\main\AndroidManifest.xml:17:25-66
category#android.intent.category.LAUNCHER
ADDED from D:\CurrencyExchangeApp\CurrencyExchangeApp\app\src\main\AndroidManifest.xml:19:17-77
	android:name
		ADDED from D:\CurrencyExchangeApp\CurrencyExchangeApp\app\src\main\AndroidManifest.xml:19:27-74
uses-sdk
INJECTED from D:\CurrencyExchangeApp\CurrencyExchangeApp\app\src\main\AndroidManifest.xml reason: use-sdk injection requested
INJECTED from D:\CurrencyExchangeApp\CurrencyExchangeApp\app\src\main\AndroidManifest.xml
INJECTED from D:\CurrencyExchangeApp\CurrencyExchangeApp\app\src\main\AndroidManifest.xml
MERGED from [androidx.databinding:databinding-adapters:4.0.0] C:\Users\User\.gradle\caches\transforms-2\files-2.1\843f0d1a7a6672b7cfd8450c11b21609\databinding-adapters-4.0.0\AndroidManifest.xml:22:5-44
MERGED from [androidx.databinding:databinding-adapters:4.0.0] C:\Users\User\.gradle\caches\transforms-2\files-2.1\843f0d1a7a6672b7cfd8450c11b21609\databinding-adapters-4.0.0\AndroidManifest.xml:22:5-44
MERGED from [androidx.databinding:databinding-runtime:4.0.0] C:\Users\User\.gradle\caches\transforms-2\files-2.1\07c358b4be75ed6c6cc333f92e7c1e29\databinding-runtime-4.0.0\AndroidManifest.xml:22:5-44
MERGED from [androidx.databinding:databinding-runtime:4.0.0] C:\Users\User\.gradle\caches\transforms-2\files-2.1\07c358b4be75ed6c6cc333f92e7c1e29\databinding-runtime-4.0.0\AndroidManifest.xml:22:5-44
MERGED from [androidx.databinding:viewbinding:4.0.0] C:\Users\User\.gradle\caches\transforms-2\files-2.1\6df05b1e3dd101af0476c44e9cab42f0\jetified-viewbinding-4.0.0\AndroidManifest.xml:20:5-44
MERGED from [androidx.databinding:viewbinding:4.0.0] C:\Users\User\.gradle\caches\transforms-2\files-2.1\6df05b1e3dd101af0476c44e9cab42f0\jetified-viewbinding-4.0.0\AndroidManifest.xml:20:5-44
MERGED from [androidx.navigation:navigation-fragment-ktx:2.2.0] C:\Users\User\.gradle\caches\transforms-2\files-2.1\ec5ef704bcd37d0d5b500a7944462d52\navigation-fragment-ktx-2.2.0\AndroidManifest.xml:20:5-22:41
MERGED from [androidx.navigation:navigation-fragment-ktx:2.2.0] C:\Users\User\.gradle\caches\transforms-2\files-2.1\ec5ef704bcd37d0d5b500a7944462d52\navigation-fragment-ktx-2.2.0\AndroidManifest.xml:20:5-22:41
MERGED from [androidx.fragment:fragment-ktx:1.2.0] C:\Users\User\.gradle\caches\transforms-2\files-2.1\aacff69b5e64e13539afae5b537b6395\jetified-fragment-ktx-1.2.0\AndroidManifest.xml:20:5-22:41
MERGED from [androidx.fragment:fragment-ktx:1.2.0] C:\Users\User\.gradle\caches\transforms-2\files-2.1\aacff69b5e64e13539afae5b537b6395\jetified-fragment-ktx-1.2.0\AndroidManifest.xml:20:5-22:41
MERGED from [androidx.navigation:navigation-ui-ktx:2.2.0] C:\Users\User\.gradle\caches\transforms-2\files-2.1\1abec84adabf1a09bd20c381123ff91e\navigation-ui-ktx-2.2.0\AndroidManifest.xml:20:5-22:41
MERGED from [androidx.navigation:navigation-ui-ktx:2.2.0] C:\Users\User\.gradle\caches\transforms-2\files-2.1\1abec84adabf1a09bd20c381123ff91e\navigation-ui-ktx-2.2.0\AndroidManifest.xml:20:5-22:41
MERGED from [androidx.navigation:navigation-runtime-ktx:2.2.0] C:\Users\User\.gradle\caches\transforms-2\files-2.1\f96febac95c4538ee95a2822d92c23b6\navigation-runtime-ktx-2.2.0\AndroidManifest.xml:20:5-22:41
MERGED from [androidx.navigation:navigation-runtime-ktx:2.2.0] C:\Users\User\.gradle\caches\transforms-2\files-2.1\f96febac95c4538ee95a2822d92c23b6\navigation-runtime-ktx-2.2.0\AndroidManifest.xml:20:5-22:41
MERGED from [androidx.activity:activity-ktx:1.1.0] C:\Users\User\.gradle\caches\transforms-2\files-2.1\75ef4d45297f18251da058397df83e5b\jetified-activity-ktx-1.1.0\AndroidManifest.xml:20:5-22:41
MERGED from [androidx.activity:activity-ktx:1.1.0] C:\Users\User\.gradle\caches\transforms-2\files-2.1\75ef4d45297f18251da058397df83e5b\jetified-activity-ktx-1.1.0\AndroidManifest.xml:20:5-22:41
MERGED from [androidx.core:core-ktx:1.3.0] C:\Users\User\.gradle\caches\transforms-2\files-2.1\17577617bf97907efee4104d067f2bf8\jetified-core-ktx-1.3.0\AndroidManifest.xml:5:5-7:41
MERGED from [androidx.core:core-ktx:1.3.0] C:\Users\User\.gradle\caches\transforms-2\files-2.1\17577617bf97907efee4104d067f2bf8\jetified-core-ktx-1.3.0\AndroidManifest.xml:5:5-7:41
MERGED from [androidx.lifecycle:lifecycle-viewmodel-ktx:2.2.0] C:\Users\User\.gradle\caches\transforms-2\files-2.1\fa53d8c6d64a702f2d6c031dcf2c9b2f\jetified-lifecycle-viewmodel-ktx-2.2.0\AndroidManifest.xml:20:5-22:41
MERGED from [androidx.lifecycle:lifecycle-viewmodel-ktx:2.2.0] C:\Users\User\.gradle\caches\transforms-2\files-2.1\fa53d8c6d64a702f2d6c031dcf2c9b2f\jetified-lifecycle-viewmodel-ktx-2.2.0\AndroidManifest.xml:20:5-22:41
MERGED from [androidx.room:room-ktx:2.2.5] C:\Users\User\.gradle\caches\transforms-2\files-2.1\f859e8136fafa22e5e79a40d814c73b3\jetified-room-ktx-2.2.5\AndroidManifest.xml:20:5-22:41
MERGED from [androidx.room:room-ktx:2.2.5] C:\Users\User\.gradle\caches\transforms-2\files-2.1\f859e8136fafa22e5e79a40d814c73b3\jetified-room-ktx-2.2.5\AndroidManifest.xml:20:5-22:41
MERGED from [androidx.lifecycle:lifecycle-runtime-ktx:2.2.0] C:\Users\User\.gradle\caches\transforms-2\files-2.1\bcc83e2649144b9ee61d30af3b279126\jetified-lifecycle-runtime-ktx-2.2.0\AndroidManifest.xml:20:5-22:41
MERGED from [androidx.lifecycle:lifecycle-runtime-ktx:2.2.0] C:\Users\User\.gradle\caches\transforms-2\files-2.1\bcc83e2649144b9ee61d30af3b279126\jetified-lifecycle-runtime-ktx-2.2.0\AndroidManifest.xml:20:5-22:41
MERGED from [androidx.navigation:navigation-common-ktx:2.2.0] C:\Users\User\.gradle\caches\transforms-2\files-2.1\dca6fc9b59f20270e3988dd285106860\navigation-common-ktx-2.2.0\AndroidManifest.xml:20:5-22:41
MERGED from [androidx.navigation:navigation-common-ktx:2.2.0] C:\Users\User\.gradle\caches\transforms-2\files-2.1\dca6fc9b59f20270e3988dd285106860\navigation-common-ktx-2.2.0\AndroidManifest.xml:20:5-22:41
MERGED from [androidx.lifecycle:lifecycle-livedata-core-ktx:2.2.0] C:\Users\User\.gradle\caches\transforms-2\files-2.1\6af8afa66d369154938a38569b04866a\jetified-lifecycle-livedata-core-ktx-2.2.0\AndroidManifest.xml:20:5-22:41
MERGED from [androidx.lifecycle:lifecycle-livedata-core-ktx:2.2.0] C:\Users\User\.gradle\caches\transforms-2\files-2.1\6af8afa66d369154938a38569b04866a\jetified-lifecycle-livedata-core-ktx-2.2.0\AndroidManifest.xml:20:5-22:41
MERGED from [androidx.navigation:navigation-ui:2.2.0] C:\Users\User\.gradle\caches\transforms-2\files-2.1\9c6724b6422e2c31d4d6bc92d63f61c1\navigation-ui-2.2.0\AndroidManifest.xml:20:5-22:41
MERGED from [androidx.navigation:navigation-ui:2.2.0] C:\Users\User\.gradle\caches\transforms-2\files-2.1\9c6724b6422e2c31d4d6bc92d63f61c1\navigation-ui-2.2.0\AndroidManifest.xml:20:5-22:41
MERGED from [com.google.android.material:material:1.2.0-alpha04] C:\Users\User\.gradle\caches\transforms-2\files-2.1\010e2165c47a8fe403e905a8fae5dd22\material-1.2.0-alpha04\AndroidManifest.xml:20:5-44
MERGED from [com.google.android.material:material:1.2.0-alpha04] C:\Users\User\.gradle\caches\transforms-2\files-2.1\010e2165c47a8fe403e905a8fae5dd22\material-1.2.0-alpha04\AndroidManifest.xml:20:5-44
MERGED from [com.google.dagger:dagger-android-support:2.21] C:\Users\User\.gradle\caches\transforms-2\files-2.1\264e09f505d688edd094a2d32be51988\jetified-dagger-android-support-2.21\AndroidManifest.xml:20:5-44
MERGED from [com.google.dagger:dagger-android-support:2.21] C:\Users\User\.gradle\caches\transforms-2\files-2.1\264e09f505d688edd094a2d32be51988\jetified-dagger-android-support-2.21\AndroidManifest.xml:20:5-44
MERGED from [com.github.AnyChart:AnyChart-Android:1.1.2] C:\Users\User\.gradle\caches\transforms-2\files-2.1\44efca0cd53408161b70c600ea62c3db\jetified-AnyChart-Android-1.1.2\AndroidManifest.xml:7:5-9:41
MERGED from [com.github.AnyChart:AnyChart-Android:1.1.2] C:\Users\User\.gradle\caches\transforms-2\files-2.1\44efca0cd53408161b70c600ea62c3db\jetified-AnyChart-Android-1.1.2\AndroidManifest.xml:7:5-9:41
MERGED from [androidx.appcompat:appcompat:1.1.0] C:\Users\User\.gradle\caches\transforms-2\files-2.1\2c15c81801cef441f5424dee86ebb27e\appcompat-1.1.0\AndroidManifest.xml:20:5-22:41
MERGED from [androidx.appcompat:appcompat:1.1.0] C:\Users\User\.gradle\caches\transforms-2\files-2.1\2c15c81801cef441f5424dee86ebb27e\appcompat-1.1.0\AndroidManifest.xml:20:5-22:41
MERGED from [androidx.constraintlayout:constraintlayout:1.1.3] C:\Users\User\.gradle\caches\transforms-2\files-2.1\bd553e95add3160adb4360269271e713\constraintlayout-1.1.3\AndroidManifest.xml:5:5-7:41
MERGED from [androidx.constraintlayout:constraintlayout:1.1.3] C:\Users\User\.gradle\caches\transforms-2\files-2.1\bd553e95add3160adb4360269271e713\constraintlayout-1.1.3\AndroidManifest.xml:5:5-7:41
MERGED from [androidx.lifecycle:lifecycle-extensions:2.2.0] C:\Users\User\.gradle\caches\transforms-2\files-2.1\02e6e5e526f36fa790ca38374db056cf\lifecycle-extensions-2.2.0\AndroidManifest.xml:20:5-22:41
MERGED from [androidx.lifecycle:lifecycle-extensions:2.2.0] C:\Users\User\.gradle\caches\transforms-2\files-2.1\02e6e5e526f36fa790ca38374db056cf\lifecycle-extensions-2.2.0\AndroidManifest.xml:20:5-22:41
MERGED from [androidx.navigation:navigation-fragment:2.2.0] C:\Users\User\.gradle\caches\transforms-2\files-2.1\e6c2719dd3746ababee76849f604dac0\navigation-fragment-2.2.0\AndroidManifest.xml:20:5-22:41
MERGED from [androidx.navigation:navigation-fragment:2.2.0] C:\Users\User\.gradle\caches\transforms-2\files-2.1\e6c2719dd3746ababee76849f604dac0\navigation-fragment-2.2.0\AndroidManifest.xml:20:5-22:41
MERGED from [com.google.dagger:dagger-android:2.21] C:\Users\User\.gradle\caches\transforms-2\files-2.1\20e202d7d04cb5afa9fa9fcb0cd53b43\jetified-dagger-android-2.21\AndroidManifest.xml:20:5-44
MERGED from [com.google.dagger:dagger-android:2.21] C:\Users\User\.gradle\caches\transforms-2\files-2.1\20e202d7d04cb5afa9fa9fcb0cd53b43\jetified-dagger-android-2.21\AndroidManifest.xml:20:5-44
MERGED from [androidx.room:room-runtime:2.2.5] C:\Users\User\.gradle\caches\transforms-2\files-2.1\03e1d56f51f904714d066cce5d86952b\room-runtime-2.2.5\AndroidManifest.xml:20:5-22:41
MERGED from [androidx.room:room-runtime:2.2.5] C:\Users\User\.gradle\caches\transforms-2\files-2.1\03e1d56f51f904714d066cce5d86952b\room-runtime-2.2.5\AndroidManifest.xml:20:5-22:41
MERGED from [androidx.appcompat:appcompat-resources:1.1.0] C:\Users\User\.gradle\caches\transforms-2\files-2.1\b5ae18c9d701f04df9a4653ebc60c58d\jetified-appcompat-resources-1.1.0\AndroidManifest.xml:20:5-22:41
MERGED from [androidx.appcompat:appcompat-resources:1.1.0] C:\Users\User\.gradle\caches\transforms-2\files-2.1\b5ae18c9d701f04df9a4653ebc60c58d\jetified-appcompat-resources-1.1.0\AndroidManifest.xml:20:5-22:41
MERGED from [androidx.drawerlayout:drawerlayout:1.0.0] C:\Users\User\.gradle\caches\transforms-2\files-2.1\ccb6ac9dc2ab0e85485cfe8268e9be9f\drawerlayout-1.0.0\AndroidManifest.xml:20:5-44
MERGED from [androidx.drawerlayout:drawerlayout:1.0.0] C:\Users\User\.gradle\caches\transforms-2\files-2.1\ccb6ac9dc2ab0e85485cfe8268e9be9f\drawerlayout-1.0.0\AndroidManifest.xml:20:5-44
MERGED from [androidx.coordinatorlayout:coordinatorlayout:1.1.0] C:\Users\User\.gradle\caches\transforms-2\files-2.1\266335dd7342bace14c19296a9826d19\coordinatorlayout-1.1.0\AndroidManifest.xml:20:5-22:41
MERGED from [androidx.coordinatorlayout:coordinatorlayout:1.1.0] C:\Users\User\.gradle\caches\transforms-2\files-2.1\266335dd7342bace14c19296a9826d19\coordinatorlayout-1.1.0\AndroidManifest.xml:20:5-22:41
MERGED from [androidx.transition:transition:1.2.0] C:\Users\User\.gradle\caches\transforms-2\files-2.1\02b39589307b33d38ddc9e41418f08bb\transition-1.2.0\AndroidManifest.xml:20:5-22:41
MERGED from [androidx.transition:transition:1.2.0] C:\Users\User\.gradle\caches\transforms-2\files-2.1\02b39589307b33d38ddc9e41418f08bb\transition-1.2.0\AndroidManifest.xml:20:5-22:41
MERGED from [androidx.vectordrawable:vectordrawable-animated:1.1.0] C:\Users\User\.gradle\caches\transforms-2\files-2.1\69d3f5308aa3df62fc88288cec56167f\vectordrawable-animated-1.1.0\AndroidManifest.xml:20:5-22:41
MERGED from [androidx.vectordrawable:vectordrawable-animated:1.1.0] C:\Users\User\.gradle\caches\transforms-2\files-2.1\69d3f5308aa3df62fc88288cec56167f\vectordrawable-animated-1.1.0\AndroidManifest.xml:20:5-22:41
MERGED from [androidx.vectordrawable:vectordrawable:1.1.0] C:\Users\User\.gradle\caches\transforms-2\files-2.1\ea71c2e724492b83774f754bdd78820b\vectordrawable-1.1.0\AndroidManifest.xml:20:5-22:41
MERGED from [androidx.vectordrawable:vectordrawable:1.1.0] C:\Users\User\.gradle\caches\transforms-2\files-2.1\ea71c2e724492b83774f754bdd78820b\vectordrawable-1.1.0\AndroidManifest.xml:20:5-22:41
MERGED from [androidx.viewpager2:viewpager2:1.0.0] C:\Users\User\.gradle\caches\transforms-2\files-2.1\f55c003a69969e2d2d77d2b49c56a849\jetified-viewpager2-1.0.0\AndroidManifest.xml:20:5-22:41
MERGED from [androidx.viewpager2:viewpager2:1.0.0] C:\Users\User\.gradle\caches\transforms-2\files-2.1\f55c003a69969e2d2d77d2b49c56a849\jetified-viewpager2-1.0.0\AndroidManifest.xml:20:5-22:41
MERGED from [androidx.fragment:fragment:1.2.0] C:\Users\User\.gradle\caches\transforms-2\files-2.1\a3764e74a55137a4d5508b55901e51c3\fragment-1.2.0\AndroidManifest.xml:20:5-22:41
MERGED from [androidx.fragment:fragment:1.2.0] C:\Users\User\.gradle\caches\transforms-2\files-2.1\a3764e74a55137a4d5508b55901e51c3\fragment-1.2.0\AndroidManifest.xml:20:5-22:41
MERGED from [androidx.recyclerview:recyclerview:1.1.0] C:\Users\User\.gradle\caches\transforms-2\files-2.1\534d4d79531678432cd6e17d6d172629\recyclerview-1.1.0\AndroidManifest.xml:20:5-22:41
MERGED from [androidx.recyclerview:recyclerview:1.1.0] C:\Users\User\.gradle\caches\transforms-2\files-2.1\534d4d79531678432cd6e17d6d172629\recyclerview-1.1.0\AndroidManifest.xml:20:5-22:41
MERGED from [androidx.viewpager:viewpager:1.0.0] C:\Users\User\.gradle\caches\transforms-2\files-2.1\404916a290117c68d9c416fe182fcacb\viewpager-1.0.0\AndroidManifest.xml:20:5-44
MERGED from [androidx.viewpager:viewpager:1.0.0] C:\Users\User\.gradle\caches\transforms-2\files-2.1\404916a290117c68d9c416fe182fcacb\viewpager-1.0.0\AndroidManifest.xml:20:5-44
MERGED from [androidx.customview:customview:1.0.0] C:\Users\User\.gradle\caches\transforms-2\files-2.1\e8abd7c71980c80168a90c01481073f5\customview-1.0.0\AndroidManifest.xml:20:5-44
MERGED from [androidx.customview:customview:1.0.0] C:\Users\User\.gradle\caches\transforms-2\files-2.1\e8abd7c71980c80168a90c01481073f5\customview-1.0.0\AndroidManifest.xml:20:5-44
MERGED from [androidx.loader:loader:1.0.0] C:\Users\User\.gradle\caches\transforms-2\files-2.1\0e36da8e30fd5503e1e335ff0baa7d57\loader-1.0.0\AndroidManifest.xml:20:5-44
MERGED from [androidx.loader:loader:1.0.0] C:\Users\User\.gradle\caches\transforms-2\files-2.1\0e36da8e30fd5503e1e335ff0baa7d57\loader-1.0.0\AndroidManifest.xml:20:5-44
MERGED from [androidx.navigation:navigation-runtime:2.2.0] C:\Users\User\.gradle\caches\transforms-2\files-2.1\e8e08643013d88386996271f183d45ff\navigation-runtime-2.2.0\AndroidManifest.xml:20:5-22:41
MERGED from [androidx.navigation:navigation-runtime:2.2.0] C:\Users\User\.gradle\caches\transforms-2\files-2.1\e8e08643013d88386996271f183d45ff\navigation-runtime-2.2.0\AndroidManifest.xml:20:5-22:41
MERGED from [androidx.activity:activity:1.1.0] C:\Users\User\.gradle\caches\transforms-2\files-2.1\973c54ffa1bb27dbd3474432edbbbb08\jetified-activity-1.1.0\AndroidManifest.xml:20:5-22:41
MERGED from [androidx.activity:activity:1.1.0] C:\Users\User\.gradle\caches\transforms-2\files-2.1\973c54ffa1bb27dbd3474432edbbbb08\jetified-activity-1.1.0\AndroidManifest.xml:20:5-22:41
MERGED from [androidx.navigation:navigation-common:2.2.0] C:\Users\User\.gradle\caches\transforms-2\files-2.1\c1741257bef60edbc7f799ee8aea8a78\navigation-common-2.2.0\AndroidManifest.xml:20:5-22:41
MERGED from [androidx.navigation:navigation-common:2.2.0] C:\Users\User\.gradle\caches\transforms-2\files-2.1\c1741257bef60edbc7f799ee8aea8a78\navigation-common-2.2.0\AndroidManifest.xml:20:5-22:41
MERGED from [androidx.core:core:1.3.0] C:\Users\User\.gradle\caches\transforms-2\files-2.1\d6161d56020ec5e256ba8c7a40c1d495\core-1.3.0\AndroidManifest.xml:20:5-22:41
MERGED from [androidx.core:core:1.3.0] C:\Users\User\.gradle\caches\transforms-2\files-2.1\d6161d56020ec5e256ba8c7a40c1d495\core-1.3.0\AndroidManifest.xml:20:5-22:41
MERGED from [androidx.cursoradapter:cursoradapter:1.0.0] C:\Users\User\.gradle\caches\transforms-2\files-2.1\08fba8f88dfc36a1904212ca1348d789\cursoradapter-1.0.0\AndroidManifest.xml:20:5-44
MERGED from [androidx.cursoradapter:cursoradapter:1.0.0] C:\Users\User\.gradle\caches\transforms-2\files-2.1\08fba8f88dfc36a1904212ca1348d789\cursoradapter-1.0.0\AndroidManifest.xml:20:5-44
MERGED from [androidx.cardview:cardview:1.0.0] C:\Users\User\.gradle\caches\transforms-2\files-2.1\d6ee3408dddc326f7dfcc683e4875f13\cardview-1.0.0\AndroidManifest.xml:20:5-44
MERGED from [androidx.cardview:cardview:1.0.0] C:\Users\User\.gradle\caches\transforms-2\files-2.1\d6ee3408dddc326f7dfcc683e4875f13\cardview-1.0.0\AndroidManifest.xml:20:5-44
MERGED from [androidx.lifecycle:lifecycle-process:2.2.0] C:\Users\User\.gradle\caches\transforms-2\files-2.1\fee8a1e5bd004e46e1a24986670eab9c\jetified-lifecycle-process-2.2.0\AndroidManifest.xml:20:5-22:41
MERGED from [androidx.lifecycle:lifecycle-process:2.2.0] C:\Users\User\.gradle\caches\transforms-2\files-2.1\fee8a1e5bd004e46e1a24986670eab9c\jetified-lifecycle-process-2.2.0\AndroidManifest.xml:20:5-22:41
MERGED from [androidx.lifecycle:lifecycle-service:2.2.0] C:\Users\User\.gradle\caches\transforms-2\files-2.1\be9604ef229a594249dabe32fc1257e3\jetified-lifecycle-service-2.2.0\AndroidManifest.xml:20:5-22:41
MERGED from [androidx.lifecycle:lifecycle-service:2.2.0] C:\Users\User\.gradle\caches\transforms-2\files-2.1\be9604ef229a594249dabe32fc1257e3\jetified-lifecycle-service-2.2.0\AndroidManifest.xml:20:5-22:41
MERGED from [androidx.lifecycle:lifecycle-runtime:2.2.0] C:\Users\User\.gradle\caches\transforms-2\files-2.1\b9f6de64f92fa56e6da4277fb2ac1cc4\lifecycle-runtime-2.2.0\AndroidManifest.xml:20:5-22:41
MERGED from [androidx.lifecycle:lifecycle-runtime:2.2.0] C:\Users\User\.gradle\caches\transforms-2\files-2.1\b9f6de64f92fa56e6da4277fb2ac1cc4\lifecycle-runtime-2.2.0\AndroidManifest.xml:20:5-22:41
MERGED from [androidx.lifecycle:lifecycle-livedata:2.2.0] C:\Users\User\.gradle\caches\transforms-2\files-2.1\b2248345df6dbd3ff405c1a75ef52630\lifecycle-livedata-2.2.0\AndroidManifest.xml:20:5-22:41
MERGED from [androidx.lifecycle:lifecycle-livedata:2.2.0] C:\Users\User\.gradle\caches\transforms-2\files-2.1\b2248345df6dbd3ff405c1a75ef52630\lifecycle-livedata-2.2.0\AndroidManifest.xml:20:5-22:41
MERGED from [androidx.lifecycle:lifecycle-viewmodel-savedstate:1.0.0] C:\Users\User\.gradle\caches\transforms-2\files-2.1\6bb3281b3904ab8013189bec604976d6\jetified-lifecycle-viewmodel-savedstate-1.0.0\AndroidManifest.xml:20:5-22:41
MERGED from [androidx.lifecycle:lifecycle-viewmodel-savedstate:1.0.0] C:\Users\User\.gradle\caches\transforms-2\files-2.1\6bb3281b3904ab8013189bec604976d6\jetified-lifecycle-viewmodel-savedstate-1.0.0\AndroidManifest.xml:20:5-22:41
MERGED from [androidx.lifecycle:lifecycle-livedata-core:2.2.0] C:\Users\User\.gradle\caches\transforms-2\files-2.1\dc6d664350d804de6cb197c2a880021e\lifecycle-livedata-core-2.2.0\AndroidManifest.xml:20:5-22:41
MERGED from [androidx.lifecycle:lifecycle-livedata-core:2.2.0] C:\Users\User\.gradle\caches\transforms-2\files-2.1\dc6d664350d804de6cb197c2a880021e\lifecycle-livedata-core-2.2.0\AndroidManifest.xml:20:5-22:41
MERGED from [androidx.arch.core:core-runtime:2.1.0] C:\Users\User\.gradle\caches\transforms-2\files-2.1\1ba0fc9c3aa04cec289e86aed4971621\core-runtime-2.1.0\AndroidManifest.xml:20:5-22:41
MERGED from [androidx.arch.core:core-runtime:2.1.0] C:\Users\User\.gradle\caches\transforms-2\files-2.1\1ba0fc9c3aa04cec289e86aed4971621\core-runtime-2.1.0\AndroidManifest.xml:20:5-22:41
MERGED from [androidx.savedstate:savedstate:1.0.0] C:\Users\User\.gradle\caches\transforms-2\files-2.1\1a4014dfdedd3dc7ab29fe757fdc913a\jetified-savedstate-1.0.0\AndroidManifest.xml:20:5-22:41
MERGED from [androidx.savedstate:savedstate:1.0.0] C:\Users\User\.gradle\caches\transforms-2\files-2.1\1a4014dfdedd3dc7ab29fe757fdc913a\jetified-savedstate-1.0.0\AndroidManifest.xml:20:5-22:41
MERGED from [androidx.lifecycle:lifecycle-viewmodel:2.2.0] C:\Users\User\.gradle\caches\transforms-2\files-2.1\f4894f2f153dfe4809994317d515a637\lifecycle-viewmodel-2.2.0\AndroidManifest.xml:20:5-22:41
MERGED from [androidx.lifecycle:lifecycle-viewmodel:2.2.0] C:\Users\User\.gradle\caches\transforms-2\files-2.1\f4894f2f153dfe4809994317d515a637\lifecycle-viewmodel-2.2.0\AndroidManifest.xml:20:5-22:41
MERGED from [androidx.sqlite:sqlite-framework:2.0.1] C:\Users\User\.gradle\caches\transforms-2\files-2.1\031af4b671a5f5dfd62d490dcef226b7\sqlite-framework-2.0.1\AndroidManifest.xml:20:5-44
MERGED from [androidx.sqlite:sqlite-framework:2.0.1] C:\Users\User\.gradle\caches\transforms-2\files-2.1\031af4b671a5f5dfd62d490dcef226b7\sqlite-framework-2.0.1\AndroidManifest.xml:20:5-44
MERGED from [androidx.sqlite:sqlite:2.0.1] C:\Users\User\.gradle\caches\transforms-2\files-2.1\ab831410c6e66baff0feed88666f971b\sqlite-2.0.1\AndroidManifest.xml:20:5-44
MERGED from [androidx.sqlite:sqlite:2.0.1] C:\Users\User\.gradle\caches\transforms-2\files-2.1\ab831410c6e66baff0feed88666f971b\sqlite-2.0.1\AndroidManifest.xml:20:5-44
MERGED from [androidx.versionedparcelable:versionedparcelable:1.1.0] C:\Users\User\.gradle\caches\transforms-2\files-2.1\9fe5c2d32e607f2f3e730fd9a99d3dec\versionedparcelable-1.1.0\AndroidManifest.xml:20:5-22:41
MERGED from [androidx.versionedparcelable:versionedparcelable:1.1.0] C:\Users\User\.gradle\caches\transforms-2\files-2.1\9fe5c2d32e607f2f3e730fd9a99d3dec\versionedparcelable-1.1.0\AndroidManifest.xml:20:5-22:41
MERGED from [androidx.interpolator:interpolator:1.0.0] C:\Users\User\.gradle\caches\transforms-2\files-2.1\31582ce92161d48cbefa54b97e5bad61\interpolator-1.0.0\AndroidManifest.xml:20:5-44
MERGED from [androidx.interpolator:interpolator:1.0.0] C:\Users\User\.gradle\caches\transforms-2\files-2.1\31582ce92161d48cbefa54b97e5bad61\interpolator-1.0.0\AndroidManifest.xml:20:5-44
MERGED from [androidx.annotation:annotation-experimental:1.0.0] C:\Users\User\.gradle\caches\transforms-2\files-2.1\0f97dd6845d20635a9a1ee09eea27777\jetified-annotation-experimental-1.0.0\AndroidManifest.xml:20:5-22:41
MERGED from [androidx.annotation:annotation-experimental:1.0.0] C:\Users\User\.gradle\caches\transforms-2\files-2.1\0f97dd6845d20635a9a1ee09eea27777\jetified-annotation-experimental-1.0.0\AndroidManifest.xml:20:5-22:41
INJECTED from D:\CurrencyExchangeApp\CurrencyExchangeApp\app\src\main\AndroidManifest.xml
INJECTED from D:\CurrencyExchangeApp\CurrencyExchangeApp\app\src\main\AndroidManifest.xml
	android:targetSdkVersion
		INJECTED from D:\CurrencyExchangeApp\CurrencyExchangeApp\app\src\main\AndroidManifest.xml
		ADDED from D:\CurrencyExchangeApp\CurrencyExchangeApp\app\src\main\AndroidManifest.xml
		INJECTED from D:\CurrencyExchangeApp\CurrencyExchangeApp\app\src\main\AndroidManifest.xml
	android:minSdkVersion
		INJECTED from D:\CurrencyExchangeApp\CurrencyExchangeApp\app\src\main\AndroidManifest.xml
		ADDED from D:\CurrencyExchangeApp\CurrencyExchangeApp\app\src\main\AndroidManifest.xml
		INJECTED from D:\CurrencyExchangeApp\CurrencyExchangeApp\app\src\main\AndroidManifest.xml
service#androidx.room.MultiInstanceInvalidationService
ADDED from [androidx.room:room-runtime:2.2.5] C:\Users\User\.gradle\caches\transforms-2\files-2.1\03e1d56f51f904714d066cce5d86952b\room-runtime-2.2.5\AndroidManifest.xml:25:9-28:40
	android:exported
		ADDED from [androidx.room:room-runtime:2.2.5] C:\Users\User\.gradle\caches\transforms-2\files-2.1\03e1d56f51f904714d066cce5d86952b\room-runtime-2.2.5\AndroidManifest.xml:28:13-37
	android:directBootAware
		ADDED from [androidx.room:room-runtime:2.2.5] C:\Users\User\.gradle\caches\transforms-2\files-2.1\03e1d56f51f904714d066cce5d86952b\room-runtime-2.2.5\AndroidManifest.xml:27:13-43
	android:name
		ADDED from [androidx.room:room-runtime:2.2.5] C:\Users\User\.gradle\caches\transforms-2\files-2.1\03e1d56f51f904714d066cce5d86952b\room-runtime-2.2.5\AndroidManifest.xml:26:13-74
provider#androidx.lifecycle.ProcessLifecycleOwnerInitializer
ADDED from [androidx.lifecycle:lifecycle-process:2.2.0] C:\Users\User\.gradle\caches\transforms-2\files-2.1\fee8a1e5bd004e46e1a24986670eab9c\jetified-lifecycle-process-2.2.0\AndroidManifest.xml:25:9-29:43
	android:authorities
		ADDED from [androidx.lifecycle:lifecycle-process:2.2.0] C:\Users\User\.gradle\caches\transforms-2\files-2.1\fee8a1e5bd004e46e1a24986670eab9c\jetified-lifecycle-process-2.2.0\AndroidManifest.xml:27:13-69
	android:multiprocess
		ADDED from [androidx.lifecycle:lifecycle-process:2.2.0] C:\Users\User\.gradle\caches\transforms-2\files-2.1\fee8a1e5bd004e46e1a24986670eab9c\jetified-lifecycle-process-2.2.0\AndroidManifest.xml:29:13-40
	android:exported
		ADDED from [androidx.lifecycle:lifecycle-process:2.2.0] C:\Users\User\.gradle\caches\transforms-2\files-2.1\fee8a1e5bd004e46e1a24986670eab9c\jetified-lifecycle-process-2.2.0\AndroidManifest.xml:28:13-37
	android:name
		ADDED from [androidx.lifecycle:lifecycle-process:2.2.0] C:\Users\User\.gradle\caches\transforms-2\files-2.1\fee8a1e5bd004e46e1a24986670eab9c\jetified-lifecycle-process-2.2.0\AndroidManifest.xml:26:13-79
